475242 672828 509
155328 825920 509
632562 936135 525
140608 631377 509
526969 813161 509
80643 355976 443
560658 610436 434
741157 143328 509
531843 685906 509
597446 221175 470
441088 871416 525
176020 410401 449
635926 700565 442
597967 659444 509
844290 596992 525
325509 968513 525
170458 239868 443
329183 310533 384
593522 948968 525
356368 781153 509
967678 483011 525
538234 789459 509
844148 246904 525
109665 978206 525
440136 751003 509
157084 858075 525
545680 470885 470
943939 562741 525
817093 588066 509
927082 138099 525
986688 841207 507
307723 771176 509
16891 129015 354
483560 296113 449
879691 616398 525
179359 204844 365
620343 399783 470
464408 69619 449
796386 201554 509
438492 29793 449
825854 213270 509
413792 783982 509
66253 343655 443
878294 112688 525
548548 773441 509
460879 408967 449
676383 972959 525
714679 120217 509
232127 936684 525
666882 491882 509
52276 361968 443
343301 526165 470
138328 619203 470
678338 87319 509
845787 453566 525
508738 581540 470
959738 533018 525
202379 585037 470
718510 412542 509
771564 871542 525
438726 172426 449
97498 490791 449
59998 722749 509
788922 59682 509
698672 12948 509
313021 38171 443
882493 313596 525
293668 263497 407
948768 951649 414
489000 280911 449
180989 482471 449
766661 6284 509
315127 831381 509
449175 444332 369
186302 980789 525
100007 450249 449
581391 361909 470
657118 177702 509
418233 808036 509
421886 298698 449
993693 798510 525
713776 175417 509
241154 719659 509
332029 910534 525
684234 500833 509
976341 565901 525
799050 605551 509
254530 405288 441
188049 617824 470
585780 29858 470
677131 626618 442
106417 313577 443
820250 489166 509
872509 175118 525
858080 684988 525
616706 977103 525
15974 113867 354
224382 328858 443
762280 854121 525
342744 142996 443
187694 393096 443
900165 323497 525
914309 526826 525
936618 693456 525
181659 395620 443
186599 181716 334
340003 221864 443
970543 987060 458
171185 149610 383
232336 227656 443
634907 367286 509
686588 7686 509
295823 595723 470
313088 820846 509
56003 482841 449
900372 135831 525
830729 851042 525
408554 30289 443
799910 825274 450
97405 997810 525
256290 288707 407
282989 129210 443
249824 264356 407
262453 541612 470
233504 569760 470
168176 729492 509
429224 424668 374
226455 448188 449
881990 419104 525
950057 776599 525
944476 686512 525
550585 660167 509
350335 63269 443
24660 929055 525
797466 657161 504
533510 535511 346
740937 989815 525
245432 691764 509
346638 615592 470
755052 36132 509
693177 880172 525
534856 845132 525
216871 771199 509
640410 569620 509
570573 527462 452
559723 32192 470
519386 899153 525
400810 937611 525
45077 86118 351
184464 158990 370
282025 432452 449
602184 283277 470
856750 505317 525
227984 143536 386
913973 944487 507
245735 853050 525
626412 768287 504
465273 106828 449
288800 271425 389
289919 51022 443
307700 242979 407
315397 142038 443
858350 657684 525
436336 259329 449
184430 336883 443
332759 263569 407
696307 407991 509
489554 181164 449
888217 412722 525
87443 869163 525
695288 570912 509
770682 47513 509
998692 592900 525
359266 755800 509
854227 852902 419
41089 564549 470
774135 381209 509
194418 586368 470
61840 195169 383
875321 702304 525
48406 278480 443
854465 899549 445
492051 636196 509
105910 224768 386
503842 346254 449
753165 101719 509
765108 450958 509
176683 611297 470
580048 874279 525
220636 796322 509
494560 955263 525
318458 450202 449
582082 948947 525
885332 140369 525
539370 476292 470
719069 904628 525
656169 421152 509
442365 826721 509
772975 773549 362
898332 908067 445
219914 159707 386
352000 409668 436
909244 929007 476
402548 213514 443
781048 30713 509
580338 451682 470
885179 818595 525
840108 591770 525
592983 263471 470
380806 735223 509
507103 537106 470
412351 541459 470
787053 259920 509
759202 19239 509
619427 280979 470
19087 831158 509
511372 801903 509
727407 467038 509
101665 966531 525
594211 775027 509
16 17 13
1 999999 525
2901 3 209
