739363 438892 509
43944 663036 509
836268 220471 509
709095 104196 509
72829 382678 443
772636 528788 509
685970 224545 509
561931 923616 525
413690 932229 525
272103 58550 443
32502 169083 383
679090 171695 509
847129 284646 525
711218 913373 525
777998 479935 509
168998 653103 509
520456 656806 509
441692 542822 470
725123 903435 525
969295 152508 525
438461 314249 449
397010 187280 443
838485 214455 525
324657 773555 509
606828 859154 525
333554 768363 509
933473 592023 525
351366 433548 449
788139 224896 509
944636 768186 525
744259 148031 509
323650 337092 384
81256 652502 509
123392 959071 525
179490 800068 509
530096 615230 452
860464 722254 525
905602 805369 525
254796 282808 407
181716 890359 525
60437 287320 443
371525 34042 443
164082 41585 383
867758 889950 445
652058 764636 504
517928 170124 470
49267 77122 351
501331 332716 449
42986 123254 354
301715 970125 525
187973 754747 509
732136 528603 509
208347 84728 383
628869 315449 509
411317 135183 449
558154 174058 470
959292 51066 525
571220 34341 470
153672 854445 525
754409 910908 525
258326 130798 443
348947 247134 441
798111 348316 509
623286 289846 470
46396 201749 383
712406 651125 504
195486 251369 443
270577 744679 509
46192 514114 470
695830 271607 509
126495 670731 509
918064 772582 525
278397 198513 443
187834 101622 383
112670 457231 449
565900 90758 470
113324 286968 443
515193 737178 509
106589 895433 525
896968 419000 525
58479 165950 383
835994 498517 509
225849 941339 525
736554 294283 509
391713 28193 443
580773 796487 509
639747 975741 525
999645 851931 507
953039 542086 525
414709 88553 449
866748 722511 525
990480 316812 525
746890 80670 509
428093 135019 449
967563 557651 525
907945 365703 525
145512 731085 509
221711 30590 386
429987 724484 509
888973 897936 370
844261 360508 525
463903 493404 426
717290 723291 411
950084 583261 525
812699 327870 509
15524 736507 509
70591 636277 509
355750 403473 436
195779 61099 383
767528 40315 509
293481 476430 449
585237 335953 470
428177 964972 525
939674 803241 525
328151 680955 509
288263 170535 443
295009 625220 470
458728 592077 470
27544 846484 525
744382 385114 509
476021 630303 509
575615 232769 470
54209 356559 443
547756 469891 470
449548 816558 509
576980 952706 525
353464 789404 509
410611 601508 470
939542 682323 525
586011 869346 525
640249 765218 504
816677 95758 509
216854 716246 509
215283 893956 525
373453 171181 443
694876 97647 509
776478 746087 468
369575 408746 436
120193 958785 525
430227 357789 449
296676 541982 470
231525 770463 509
957864 675732 525
848471 350378 525
202810 37197 383
32109 647113 509
248314 629572 509
100272 997308 525
438680 938457 525
236488 678957 509
365410 14029 443
667275 786778 504
31111 516042 470
70783 414241 449
156351 55192 383
495739 740802 509
249398 556671 470
802606 652424 504
59995 763621 509
888747 248360 525
545915 96637 470
877649 355538 525
81248 242940 443
673191 534453 509
275518 286959 389
134264 952312 525
550629 356711 470
906790 238159 525
400402 993608 525
718780 610059 509
443212 119018 449
71344 149598 375
579219 175562 470
285656 6197 443
596779 195803 470
429658 114985 449
855714 318547 525
353622 496810 449
193758 29057 383
448908 43277 449
894957 552365 525
901942 917417 476
166868 382413 443
839289 724166 525
628155 638876 416
759510 793861 468
26526 28770 308
401828 712559 509
453885 683995 509
53734 730881 509
118332 549647 470
960482 135923 525
644784 56647 509
522293 322145 470
783874 77047 509
225400 809964 509
839504 194635 525
84509 468111 449
199321 189420 360
915245 828803 525
556687 658567 509
676156 101905 509
454763 557840 470
765636 948134 525
980186 75725 525
789194 439980 509
82780 626149 470
942500 494516 525
283606 410214 449
264214 939636 525
232415 635114 509
894613 240249 525
755144 27090 509
985427 729807 525
154396 18641 375
951932 970779 458
683921 675346 385
810677 553668 509
617934 192913 470
129190 658819 509
838636 311846 525
841650 213486 525
734715 954858 525
108595 267994 443
830689 712369 468
996131 740601 525
984304 672454 525
591408 585996 359
371265 129848 443
27963 810392 509
12886 706803 509
104344 403156 443
789537 730092 468
281541 959559 525
459944 407414 449
36958 823903 509
334758 622363 470
400264 730518 509
201321 517265 470
180940 363322 443
678213 871882 525
679992 214289 509
301849 694421 509
980476 738555 525
27017 767264 509
485039 820820 509
486365 261271 449
264317 411070 449
186049 536757 470
800679 288810 509

