1 10 20
100 200 125
201 210 89
900 1000 174
753 766 153
1477 1560 154
1460 1542 172
2780 2865 173
2151 2195 170
5210 5299 192
4966 5037 179
3348 3392 181
4735 4834 197
4866 4909 179
2694 2742 160
10325 10412 224
4444 4537 184
9440 9474 154
6137 6215 262
11628 11647 175
7901 7991 252
5103 5113 179
5189 5195 148
19407 19420 181
1655 1697 180
20351 20372 181
11092 11176 237
19175 19219 199
23577 23650 176
17275 17367 173
14000 14049 196
13337 13427 214
15084 15132 222
1 999999 525
10001 11000 268
11001 12000 250
12001 13000 263
13001 14000 276
14001 15000 271
15001 16000 271
16001 17000 266
17001 18000 279
18001 19000 261
19001 20000 274
20001 21000 256
21001 22000 269
22001 23000 269
23001 24000 282
24001 25000 264
25001 26000 264
26001 27000 308
27001 28000 259
28001 29000 259
29001 30000 272
30001 31000 272
31001 32000 285
32001 33000 267
33001 34000 267
34001 35000 311
35001 36000 324
36001 37000 249
37001 38000 306
38001 39000 244
39001 40000 306
40001 41000 288
41001 42000 257
42001 43000 288
43001 44000 270
44001 45000 270
45001 46000 314
46001 47000 283
47001 48000 314
48001 49000 296
49001 50000 296
50001 51000 278
51001 52000 309
52001 53000 340
53001 54000 322
54001 55000 260
55001 56000 260
56001 57000 322
57001 58000 304
58001 59000 273
59001 60000 304
60001 61000 335
61001 62000 317
62001 63000 286
63001 64000 330
64001 65000 299
65001 66000 268
66001 67000 268
67001 68000 312
68001 69000 312
69001 70000 299
70001 71000 312
71001 72000 325
72001 73000 263
73001 74000 294
74001 75000 325
75001 76000 307
76001 77000 307
77001 78000 351
78001 79000 338
79001 80000 307
80001 81000 320
81001 82000 320
82001 83000 320
83001 84000 289
84001 85000 320
85001 86000 302
86001 87000 302
87001 88000 333
88001 89000 333
89001 90000 315
90001 91000 315
91001 92000 333
92001 93000 315
93001 94000 284
94001 95000 315
95001 96000 328
96001 97000 297
97001 98000 297
98001 99000 284
99001 100000 328
100001 101000 341
101001 102000 310
102001 103000 310
103001 104000 248
104001 105000 310
105001 106000 341
106001 107000 354
107001 108000 292
108001 109000 279
109001 110000 310
110001 111000 292
111001 112000 323
112001 113000 323
113001 114000 292
114001 115000 305
115001 116000 349
116001 117000 305
117001 118000 305
118001 119000 336
119001 120000 305
120001 121000 318
121001 122000 336
122001 123000 318
123001 124000 331
124001 125000 287
125001 126000 318
126001 127000 331
127001 128000 287
128001 129000 331
129001 130000 344
130001 131000 331
131001 132000 300
132001 133000 331
133001 134000 313
134001 135000 300
135001 136000 344
136001 137000 313
137001 138000 331
138001 139000 313
139001 140000 313
140001 141000 344
141001 142000 326
142001 143000 375
143001 144000 282
144001 145000 326
145001 146000 295
146001 147000 357
147001 148000 295
148001 149000 326
149001 150000 326
150001 151000 370
151001 152000 295
152001 153000 308
153001 154000 308
154001 155000 352
155001 156000 308
156001 157000 383
157001 158000 339
158001 159000 321
159001 160000 352
160001 161000 370
161001 162000 290
162001 163000 339
163001 164000 321
164001 165000 334
165001 166000 321
166001 167000 352
167001 168000 321
168001 169000 321
169001 170000 334
170001 171000 290
171001 172000 334
172001 173000 303
173001 174000 347
174001 175000 334
175001 176000 272
176001 177000 334
177001 178000 334
178001 179000 347
179001 180000 303
180001 181000 365
181001 182000 316
182001 183000 334
183001 184000 254
184001 185000 316
185001 186000 329
186001 187000 347
187001 188000 329
188001 189000 316
189001 190000 360
190001 191000 329
191001 192000 329
192001 193000 347
193001 194000 329
194001 195000 342
195001 196000 360
196001 197000 298
197001 198000 285
198001 199000 329
199001 200000 329
200001 201000 342
201001 202000 311
202001 203000 342
203001 204000 311
204001 205000 311
205001 206000 355
206001 207000 373
207001 208000 311
208001 209000 311
209001 210000 311
